<svg version="1.1" xmlns="http://www.w3.org/2000/svg" xmlns:xlink="http://www.w3.org/1999/xlink" height="24" width="24" viewBox="0 0 32 32" fill="#fff">
    <path d="M26.688 21.313v-16H5.313v18.688l2.688-2.688h18.688zm0-18.625a2.64 2.64 0 012.625 2.625v16c0 1.438-1.188 2.688-2.625 2.688H8l-5.313 5.313v-24a2.64 2.64 0 012.625-2.625h21.375z"></path>
</svg>
